<?xml version="1.0" encoding="utf-8"?>
<!-- Generator: Adobe Illustrator 24.1.2, SVG Export Plug-In . SVG Version: 6.00 Build 0)  -->
<svg xmlns="http://www.w3.org/2000/svg" xmlns:xlink="http://www.w3.org/1999/xlink" version="1.1" x="0px" y="0px" width="1200px" height="322.9px" viewBox="0 0 1200 322.9" style="enable-background:new 0 0 1200 322.9;" xml:space="preserve">
<style type="text/css">
	.st0{fill:#214472;}
	.st1{fill:#D33F3D;}
</style>
<path class="st0" d="M143.3,0v11.7h-39.9l84.2,216.6l70.7-200.6c2.7-7.8-3-15.9-11.3-15.9h-30V0h95.6v11.7h-11.4  c-12.9,0-24.4,8.1-28.7,20.3l-103,290.9h-11.7L29.8,11.7H0V0H143.3z M601.3,217.4l-7.4,27c-10,36.5-43.2,61.8-81,61.8h-71V162.8  h20.7c30,0,54.3,12.8,54.3,54.3v6.2h12.4V95.4h-12.4v0c0,43.4-24.3,54.3-54.3,54.3h-20.7v-138h67.5c44.3,0,64.9,18.4,73.3,45.5  l7.4,23.6h11.6L594.7,0H332.5v11.7h40v294.4h-40v11.5h273.9l6.5-100.3H601.3z M895.5,217.4l-7.4,27c-10,36.5-43.2,61.8-81,61.8h-71  V162.8h20.7c30,0,54.3,12.8,54.3,54.3v6.2h12.4V95.4h-12.4v0c0,43.4-24.3,54.3-54.3,54.3h-20.7v-138h67.5  c44.3,0,64.9,18.4,73.3,45.5l7.4,23.6h11.6L888.9,0H626.8v11.7h40v294.4h-40v11.5h273.9l6.5-100.3H895.5z M912.1,0v11.7h40.7v294.4  h-40.7v11.5h154.4v-11.5h-44.2V168.7h65.5c83.6,0,112.3-37.8,112.3-84.3v0c0-46.6-31.9-84.3-112.3-84.3H912.1z"/>
<polygon class="st1" points="1085.6,94.2 1128.3,63.1 1075.5,63.1 1059.6,14 1043.9,63.1 991.7,63.1 1034.1,94 1018.4,143.3   1060,112.9 1101.6,143.3 "/>
</svg>
